^E:\EUGENE\PROJECTS\SKILLBOX1\SKILLBOX1\X64\DEBUG\HELPERS.OBJ|E:\EUGENE\PROJECTS\SKILLBOX1\SKILLBOX1\X64\DEBUG\SKILLBOX1.OBJ
C:\PROGRAM FILES (X86)\WINDOWS KITS\10\LIB\10.0.19041.0\UM\X64\KERNEL32.LIB
C:\PROGRAM FILES (X86)\WINDOWS KITS\10\LIB\10.0.19041.0\UM\X64\USER32.LIB
C:\PROGRAM FILES (X86)\WINDOWS KITS\10\LIB\10.0.19041.0\UM\X64\GDI32.LIB
C:\PROGRAM FILES (X86)\WINDOWS KITS\10\LIB\10.0.19041.0\UM\X64\WINSPOOL.LIB
C:\PROGRAM FILES (X86)\WINDOWS KITS\10\LIB\10.0.19041.0\UM\X64\COMDLG32.LIB
C:\PROGRAM FILES (X86)\WINDOWS KITS\10\LIB\10.0.19041.0\UM\X64\ADVAPI32.LIB
C:\PROGRAM FILES (X86)\WINDOWS KITS\10\LIB\10.0.19041.0\UM\X64\SHELL32.LIB
C:\PROGRAM FILES (X86)\WINDOWS KITS\10\LIB\10.0.19041.0\UM\X64\OLE32.LIB
C:\PROGRAM FILES (X86)\WINDOWS KITS\10\LIB\10.0.19041.0\UM\X64\OLEAUT32.LIB
C:\PROGRAM FILES (X86)\WINDOWS KITS\10\LIB\10.0.19041.0\UM\X64\UUID.LIB
C:\PROGRAM FILES (X86)\WINDOWS KITS\10\LIB\10.0.19041.0\UM\X64\ODBC32.LIB
C:\PROGRAM FILES (X86)\WINDOWS KITS\10\LIB\10.0.19041.0\UM\X64\ODBCCP32.LIB
E:\EUGENE\PROJECTS\SKILLBOX1\SKILLBOX1\X64\DEBUG\HELPERS.OBJ
E:\EUGENE\PROJECTS\SKILLBOX1\SKILLBOX1\X64\DEBUG\SKILLBOX1.OBJ
E:\EUGENE\PROJECTS\SKILLBOX1\SKILLBOX1\X64\DEBUG\SKILLBOX1.ILK
C:\WINDOWS\SYSTEM32\TZRES.DLL
C:\WINDOWS\GLOBALIZATION\SORTING\SORTDEFAULT.NLS
E:\EUGENE\VS\VC\TOOLS\MSVC\14.31.31103\LIB\X64\MSVCRTD.LIB
E:\EUGENE\VS\VC\TOOLS\MSVC\14.31.31103\LIB\X64\OLDNAMES.LIB
E:\EUGENE\VS\VC\TOOLS\MSVC\14.31.31103\LIB\X64\MSVCPRTD.LIB
E:\EUGENE\VS\VC\TOOLS\MSVC\14.31.31103\LIB\X64\VCRUNTIMED.LIB
C:\PROGRAM FILES (X86)\WINDOWS KITS\10\LIB\10.0.19041.0\UCRT\X64\UCRTD.LIB
E:\EUGENE\VS\VC\TOOLS\MSVC\14.31.31103\BIN\HOSTX64\X64\VCTIP.EXE
E:\EUGENE\PROJECTS\SKILLBOX1\SKILLBOX1\X64\DEBUG\VC143.PDB
